R for Sign Language Linguistics
…
# The below reads the function into the current session, for you to use
source("https://raw.githubusercontent.com/borstell/r_functions/main/read_eaf.R")

# You can then either read a single EAF file: 
read_eaf("/path/to/annotated_elan_file.eaf")

# Or point it to a directory (folder) containing multiple EAF files
read_eaf("/path/to/annotated_elan_files/")

# Remember to store this in a variable, if you want to work on it
my_elan_df <- read_eaf("/path/to/annotated_elan_files/")

The output of these read functions should look something like this, a data frame (techically a tibble) with the annotation data organized in rows and columns:

# A tibble: 5,682 × 14
   file     a     t1     t2     annotation tier  tier_type participant annotator
   <chr>    <chr> <chr>  <chr>  <chr>      <chr> <chr>     <chr>       <lgl>    
 1 file_001 a1322 ts579  ts582  GLOSS-0864 glos… gloss_LH  Signer_001  NA       
 2 file_001 a1323 ts585  ts609  GLOSS-0521 glos… gloss_LH  Signer_001  NA       
 3 file_001 a1324 ts669  ts677  GLOSS-0521 glos… gloss_LH  Signer_001  NA       
 4 file_001 a1325 ts681  ts707  GLOSS-0864 glos… gloss_LH  Signer_001  NA       
 5 file_001 a1327 ts741  ts744  GLOSS-1657 glos… gloss_LH  Signer_001  NA       
 6 file_001 a1329 ts1488 ts1496 GLOSS-1656 glos… gloss_LH  Signer_001  NA       
 7 file_001 a1330 ts1567 ts1570 GLOSS-1422 glos… gloss_LH  Signer_001  NA       
 8 file_001 a1333 ts2687 ts2697 GLOSS-0865 glos… gloss_LH  Signer_001  NA       
 9 file_001 a1335 ts3168 ts3170 GLOSS-1046 glos… gloss_LH  Signer_001  NA       
10 file_001 a1336 ts3175 ts3178 GLOSS-1047 glos… gloss_LH  Signer_001  NA       
# ℹ 5,672 more rows
# ℹ 5 more variables: ref <chr>, parent_tier <chr>, start <dbl>, end <dbl>,
#   duration <dbl>
…
Segmenting “turn-taking” in ELAN files

ELAN annotation data is represented with a start and end time stamp for each annotation cell. These can be used to order all annotation within a file, or per signer within a file, to represent a chronological order of things. Such orderings can be grouped together to represent utterances or “turns” in conversational data.

I created three different methods for ordering and combining individual annotations into utterances or turns, which can be found here: segment_elan_turns. Each of the three methods can be sourced as an individual R function. These functions take an ELAN-style data frame as its input, and outputs a data frame where turns have been added: either as an identifier in a new column, or with the annotations collapsed into a one-row-one-utterance format (if using simplify=TRUE in the function call). These functions may help conversation analysis research, and facilitate finding items based on their conversational distribution.

Let’s see an example:

# We read the same toy data as before, but filter to keep only glosses
my_glosses <- readr::read_csv("https://raw.githubusercontent.com/borstell/r_functions/main/data/elan_example_data.csv") |> 
  filter(tier_type %in% c("gloss_RH", "gloss_LH"))

my_glosses

# A tibble: 2,841 × 14
   file     a     t1     t2     annotation tier  tier_type participant annotator
   <chr>    <chr> <chr>  <chr>  <chr>      <chr> <chr>     <chr>       <lgl>    
 1 file_001 a1322 ts579  ts582  GLOSS-0864 glos… gloss_LH  Signer_001  NA       
 2 file_001 a1323 ts585  ts609  GLOSS-0521 glos… gloss_LH  Signer_001  NA       
 3 file_001 a1324 ts669  ts677  GLOSS-0521 glos… gloss_LH  Signer_001  NA       
 4 file_001 a1325 ts681  ts707  GLOSS-0864 glos… gloss_LH  Signer_001  NA       
 5 file_001 a1327 ts741  ts744  GLOSS-1657 glos… gloss_LH  Signer_001  NA       
 6 file_001 a1329 ts1488 ts1496 GLOSS-1656 glos… gloss_LH  Signer_001  NA       
 7 file_001 a1330 ts1567 ts1570 GLOSS-1422 glos… gloss_LH  Signer_001  NA       
 8 file_001 a1333 ts2687 ts2697 GLOSS-0865 glos… gloss_LH  Signer_001  NA       
 9 file_001 a1335 ts3168 ts3170 GLOSS-1046 glos… gloss_LH  Signer_001  NA       
10 file_001 a1336 ts3175 ts3178 GLOSS-1047 glos… gloss_LH  Signer_001  NA       
# ℹ 2,831 more rows
# ℹ 5 more variables: ref <chr>, parent_tier <chr>, start <dbl>, end <dbl>,
#   duration <dbl>
…
source("https://raw.githubusercontent.com/borstell/r_functions/main/turn_seq.R")

my_turns <- turn_seq(my_glosses, 
                     file=file, 
                     start=start, 
                     end=end, 
                     participant=participant, 
                     annotation=annotation, 
                     simplify = TRUE, # We pivot into collapsed wide turns
                     long = FALSE # We do not combine overlapping same-producer turns
                     )

my_turns |> select(file, participant, annotations)

# A tibble: 266 × 3
   file     participant annotations                                             
   <chr>    <chr>       <chr>                                                   
 1 file_001 Signer_001  GLOSS-1466 GLOSS-1278 GLOSS-1523 GLOSS-1324 GLOSS-1524 …
 2 file_001 Signer_001  GLOSS-1224                                              
 3 file_001 Signer_001  GLOSS-0418                                              
 4 file_001 Signer_001  GLOSS-1657                                              
 5 file_001 Signer_001  GLOSS-1411                                              
 6 file_001 Signer_001  GLOSS-1569 GLOSS-1279 GLOSS-1656 GLOSS-0418 GLOSS-1452 …
 7 file_001 Signer_001  GLOSS-1657                                              
 8 file_001 Signer_001  GLOSS-0816                                              
 9 file_001 Signer_001  GLOSS-0521 GLOSS-0419 GLOSS-0864 GLOSS-1022 GLOSS-0009 …
10 file_001 Signer_001  GLOSS-1325                                              
# ℹ 256 more rows
…
There is other ELAN functionality available through the {signglossR} package.

Plotting handshape fonts

Sometimes, especially when working on phonological data, it is useful to illustrate handshapes as visual forms rather than resort to language-specific labels (e.g. “baby-C”). One possibility is to use the handshape fonts created by CSLDS, CUHK. Downloading the main handshape font, you can install it on your computer, where it should be available as a local font with the name handshape2002. In principle, any font available on your local computer should also be available for plotting with {ggplot2}.

Let’s first read some – once again – toy data. This data file gives the example of 1000 data points, each describing a handshape using labels referring to the ASL manual alphabet. This could, for instance, be the annotations from an ELAN file, where annotators have annotated each of 1000 signs in a text/dictionary/etc with a single label representing the handshape.

library(tidyverse)

handshapes <- read_csv("https://raw.githubusercontent.com/borstell/r_functions/main/data/handshape_example_data.csv")

handshapes

# A tibble: 1,000 × 1
   hs   
   <chr>
 1 A    
 2 O    
 3 B    
 4 O    
 5 1    
 6 1    
 7 S    
 8 1    
 9 A    
10 1    
# ℹ 990 more rows
…
